…
# This function writes the data to a CSV file in the `data` folder in this directory
# write_csv(df, 'data/fake_bac_corpus.csv')

df
```

    ## # A tibble: 30 × 5
    ##       id speech_error   bac sex    underage
    ##    <int>        <dbl> <dbl> <chr>  <chr>   
    ##  1     1            1  0.2  Female Yes     
    ##  2     2            0  0    Male   Yes     
    ##  3     3            1  0.3  Female Yes     
    ##  4     4            0  0.1  Male   No      
    ##  5     5            1  0.4  Male   No      
    ##  6     6            0  0.05 Female Yes     
    ##  7     7            1  0.3  Female No      
    ##  8     8            0  0.3  Male   No      
    ##  9     9            1  0.25 Male   Yes     
    ## 10    10            0  0.25 Female Yes     
    ## # … with 20 more rows
…
